### Download DB
Downloading DB of ABP
[Warning: Using Comppressed Mode] 
[> In <a href="matlab:matlab.internal.language.introspective.errorDocCallback('DatabaseContractor.DownloadDB', 'C:\Users\user\Documents\sipl_repo\Main\+DatabaseContractor\DownloadDB.m', 54)" style="font-weight:bold">DatabaseContractor.DownloadDB</a> (<a href="matlab: opentoline('C:\Users\user\Documents\sipl_repo\Main\+DatabaseContractor\DownloadDB.m',54,0)">line 54</a>)] 
Starting parallel pool (parpool) using the 'local' profile ... 
{Operation terminated by user during <a href="matlab:matlab.internal.language.introspective.errorDocCallback('parallel.internal.getJavaFutureResult', 'D:\Program Files\MATLAB\R2016a\toolbox\distcomp\cluster\+parallel\+internal\getJavaFutureResult.m', 15)" style="font-weight:bold">parallel.internal.getJavaFutureResult</a> (<a href="matlab: opentoline('D:\Program Files\MATLAB\R2016a\toolbox\distcomp\cluster\+parallel\+internal\getJavaFutureResult.m',15,0)">line 15</a>)


In <a href="matlab:matlab.internal.language.introspective.errorDocCallback('parallel.internal.pool.InteractiveClient/waitForSessionCreation', 'D:\Program Files\MATLAB\R2016a\toolbox\distcomp\cluster\+parallel\+internal\+pool\InteractiveClient.m', 638)" style="font-weight:bold">parallel.internal.pool.InteractiveClient/waitForSessionCreation</a> (<a href="matlab: opentoline('D:\Program Files\MATLAB\R2016a\toolbox\distcomp\cluster\+parallel\+internal\+pool\InteractiveClient.m',638,0)">line 638</a>)
                    sessionFuture, 1, java.util.concurrent.TimeUnit.SECONDS);

In <a href="matlab:matlab.internal.language.introspective.errorDocCallback('parallel.internal.pool.InteractiveClient/start', 'D:\Program Files\MATLAB\R2016a\toolbox\distcomp\cluster\+parallel\+internal\+pool\InteractiveClient.m', 345)" style="font-weight:bold">parallel.internal.pool.InteractiveClient/start</a> (<a href="matlab: opentoline('D:\Program Files\MATLAB\R2016a\toolbox\distcomp\cluster\+parallel\+internal\+pool\InteractiveClient.m',345,0)">line 345</a>)
                    obj.Session = obj.waitForSessionCreation(sessionFuture, connectionCounter, ...

In <a href="matlab:matlab.internal.language.introspective.errorDocCallback('parallel.Pool>iStartClient', 'D:\Program Files\MATLAB\R2016a\toolbox\distcomp\cluster\+parallel\@Pool\Pool.m', 547)" style="font-weight:bold">parallel.Pool>iStartClient</a> (<a href="matlab: opentoline('D:\Program Files\MATLAB\R2016a\toolbox\distcomp\cluster\+parallel\@Pool\Pool.m',547,0)">line 547</a>)
client.start(poolType , numWorkers, cluster, ...

In <a href="matlab:matlab.internal.language.introspective.errorDocCallback('parallel.Pool.hBuildPool', 'D:\Program Files\MATLAB\R2016a\toolbox\distcomp\cluster\+parallel\@Pool\Pool.m', 439)" style="font-weight:bold">parallel.Pool.hBuildPool</a> (<a href="matlab: opentoline('D:\Program Files\MATLAB\R2016a\toolbox\distcomp\cluster\+parallel\@Pool\Pool.m',439,0)">line 439</a>)
            iStartClient(client, 'pool', cluster, guiMode, supportRestart, argsList);

In <a href="matlab:matlab.internal.language.introspective.errorDocCallback('parallel.internal.pool.doParpool', 'D:\Program Files\MATLAB\R2016a\toolbox\distcomp\cluster\+parallel\+internal\+pool\doParpool.m', 15)" style="font-weight:bold">parallel.internal.pool.doParpool</a> (<a href="matlab: opentoline('D:\Program Files\MATLAB\R2016a\toolbox\distcomp\cluster\+parallel\+internal\+pool\doParpool.m',15,0)">line 15</a>)
    pool = parallel.Pool.hBuildPool(constructorArgs{:});

In <a href="matlab:matlab.internal.language.introspective.errorDocCallback('parpool', 'D:\Program Files\MATLAB\R2016a\toolbox\distcomp\cluster\parpool.m', 89)" style="font-weight:bold">parpool</a> (<a href="matlab: opentoline('D:\Program Files\MATLAB\R2016a\toolbox\distcomp\cluster\parpool.m',89,0)">line 89</a>)
    pool = parallel.internal.pool.doParpool(varargin{:});

In <a href="matlab:matlab.internal.language.introspective.errorDocCallback('parallel.internal.pool.PoolArrayManager.getOrAutoCreateWithCleanup', 'D:\Program Files\MATLAB\R2016a\toolbox\distcomp\cluster\+parallel\+internal\+pool\PoolArrayManager.m', 49)" style="font-weight:bold">parallel.internal.pool.PoolArrayManager.getOrAutoCreateWithCleanup</a> (<a href="matlab: opentoline('D:\Program Files\MATLAB\R2016a\toolbox\distcomp\cluster\+parallel\+internal\+pool\PoolArrayManager.m',49,0)">line 49</a>)
                        cleanPool = parpool();

In <a href="matlab:matlab.internal.language.introspective.errorDocCallback('pctTryCreatePoolIfNecessary', 'D:\Program Files\MATLAB\R2016a\toolbox\distcomp\pctTryCreatePoolIfNecessary.m', 23)" style="font-weight:bold">pctTryCreatePoolIfNecessary</a> (<a href="matlab: opentoline('D:\Program Files\MATLAB\R2016a\toolbox\distcomp\pctTryCreatePoolIfNecessary.m',23,0)">line 23</a>)
    pool = parallel.internal.pool.PoolArrayManager.getOrAutoCreateWithCleanup();

In <a href="matlab:matlab.internal.language.introspective.errorDocCallback('distcomp.remoteparfor.tryRemoteParfor')" style="font-weight:bold">distcomp.remoteparfor.tryRemoteParfor</a>

In <a href="matlab:matlab.internal.language.introspective.errorDocCallback('parallel_function', 'D:\Program Files\MATLAB\R2016a\toolbox\matlab\lang\parallel_function.p', 433)" style="font-weight:bold">parallel_function</a> (<a href="matlab: opentoline('D:\Program Files\MATLAB\R2016a\toolbox\matlab\lang\parallel_function.p',433,0)">line 433</a>)
    [isPoolRunning, pool] = distcomp.remoteparfor.tryRemoteParfor();

In <a href="matlab:matlab.internal.language.introspective.errorDocCallback('DatabaseContractor.DownloadDB', 'C:\Users\user\Documents\sipl_repo\Main\+DatabaseContractor\DownloadDB.m', 67)" style="font-weight:bold">DatabaseContractor.DownloadDB</a> (<a href="matlab: opentoline('C:\Users\user\Documents\sipl_repo\Main\+DatabaseContractor\DownloadDB.m',67,0)">line 67</a>)
    parfor ii = 1:length(recordsToDownloadIdx)
} 
