### Download DB
Downloading DB of ABP
[Warning: Using Comppressed Mode] 
[> In <a href="matlab:matlab.internal.language.introspective.errorDocCallback('DatabaseContractor.DownloadDB', 'C:\Users\user\Documents\sipl_repo\Main\+DatabaseContractor\DownloadDB.m', 54)" style="font-weight:bold">DatabaseContractor.DownloadDB</a> (<a href="matlab: opentoline('C:\Users\user\Documents\sipl_repo\Main\+DatabaseContractor\DownloadDB.m',54,0)">line 54</a>)
  In <a href="matlab:matlab.internal.language.introspective.errorDocCallback('DatabaseContractor.Run', 'C:\Users\user\Documents\sipl_repo\Main\+DatabaseContractor\Run.m', 21)" style="font-weight:bold">DatabaseContractor.Run</a> (<a href="matlab: opentoline('C:\Users\user\Documents\sipl_repo\Main\+DatabaseContractor\Run.m',21,0)">line 21</a>)] 
if system_dependent('IsDebugMode')==1, dbcont; end
