### Organize DB
file 1 out of 1230
finished... 8.856269e-02 sec | 0 parts | total 0 parts | total 0 hr | total 0 days
file 2 out of 1230
finished... 8.899721e-02 sec | 0 parts | total 0 parts | total 0 hr | total 0 days
file 3 out of 1230
finished... 1.448503e-01 sec | 1 parts | total 1 parts | total 2.222222e+00 hr | total 9.259259e-02 days
file 4 out of 1230
finished... 1.448284e-01 sec | 1 parts | total 2 parts | total 4.444444e+00 hr | total 1.851852e-01 days
file 5 out of 1230
finished... 8.752608e-02 sec | 0 parts | total 2 parts | total 4.444444e+00 hr | total 1.851852e-01 days
file 6 out of 1230
finished... 8.672521e-02 sec | 0 parts | total 2 parts | total 4.444444e+00 hr | total 1.851852e-01 days
file 7 out of 1230
finished... 8.608408e-02 sec | 0 parts | total 2 parts | total 4.444444e+00 hr | total 1.851852e-01 days
file 8 out of 1230
finished... 8.749395e-02 sec | 0 parts | total 2 parts | total 4.444444e+00 hr | total 1.851852e-01 days
file 9 out of 1230
finished... 8.727444e-02 sec | 0 parts | total 2 parts | total 4.444444e+00 hr | total 1.851852e-01 days
file 10 out of 1230
finished... 8.954104e-02 sec | 0 parts | total 2 parts | total 4.444444e+00 hr | total 1.851852e-01 days
file 11 out of 1230
finished... 8.459253e-02 sec | 0 parts | total 2 parts | total 4.444444e+00 hr | total 1.851852e-01 days
file 12 out of 1230
finished... 8.770866e-02 sec | 0 parts | total 2 parts | total 4.444444e+00 hr | total 1.851852e-01 days
file 13 out of 1230
finished... 8.722099e-02 sec | 0 parts | total 2 parts | total 4.444444e+00 hr | total 1.851852e-01 days
file 14 out of 1230
finished... 8.667265e-02 sec | 0 parts | total 2 parts | total 4.444444e+00 hr | total 1.851852e-01 days
file 15 out of 1230
finished... 1.456085e-01 sec | 1 parts | total 3 parts | total 6.666667e+00 hr | total 2.777778e-01 days
file 16 out of 1230
finished... 1.453872e-01 sec | 1 parts | total 4 parts | total 8.888889e+00 hr | total 3.703704e-01 days
file 17 out of 1230
finished... 1.451692e-01 sec | 1 parts | total 5 parts | total 1.111111e+01 hr | total 4.629630e-01 days
file 18 out of 1230
if system_dependent('IsDebugMode')==1, dbquit; end
DatabaseContractor.Run
[Warning: Name is nonexistent or not a directory: wfdb-app-toolbox-0-9-10\mcode] 
[> In <a href="matlab:matlab.internal.language.introspective.errorDocCallback('path', 'D:\Program Files\MATLAB\R2016a\toolbox\matlab\general\path.m', 109)" style="font-weight:bold">path</a> (<a href="matlab: opentoline('D:\Program Files\MATLAB\R2016a\toolbox\matlab\general\path.m',109,0)">line 109</a>)
  In <a href="matlab:matlab.internal.language.introspective.errorDocCallback('addpath', 'D:\Program Files\MATLAB\R2016a\toolbox\matlab\general\addpath.m', 88)" style="font-weight:bold">addpath</a> (<a href="matlab: opentoline('D:\Program Files\MATLAB\R2016a\toolbox\matlab\general\addpath.m',88,0)">line 88</a>)
  In <a href="matlab:matlab.internal.language.introspective.errorDocCallback('DatabaseContractor.Run', 'C:\Users\user\Documents\sipl_repo\Main\+DatabaseContractor\Run.m', 2)" style="font-weight:bold">DatabaseContractor.Run</a> (<a href="matlab: opentoline('C:\Users\user\Documents\sipl_repo\Main\+DatabaseContractor\Run.m',2,0)">line 2</a>)] 
