36/3601517/
36/3601923/
36/3603778/
36/3605744/
36/3609868/
36/3614184/
36/3617042/
36/3617124/
36/3620056/
36/3623339/
36/3626790/
36/3628636/
36/3629505/
36/3630870/
36/3632108/
36/3634475/
36/3635273/
36/3637662/
36/3639712/
36/3641765/
36/3643453/
36/3644066/
36/3647005/
36/3655250/
36/3662302/
36/3663450/
36/3665866/
36/3666145/
36/3671602/
36/3672232/
36/3673792/
36/3675396/
36/3680939/
36/3684119/
36/3690835/
37/3701288/
37/3704246/
37/3705993/
37/3709739/
37/3711848/
37/3715754/
37/3722241/
37/3726476/
37/3730603/
37/3738465/
37/3739937/
37/3740891/
37/3744736/
37/3746698/
37/3749991/
37/3751045/
37/3751638/
37/3752643/
37/3754184/
37/3754346/
37/3756342/
37/3758565/
37/3771066/
37/3776194/
37/3777140/
37/3778629/
37/3789284/
37/3790082/
37/3791369/
37/3793278/
37/3798562/
38/3807522/
38/3813089/
38/3814894/
38/3815836/
38/3820551/
38/3821125/
38/3828635/
38/3828979/
38/3836120/
38/3839847/
38/3846482/
38/3849527/
38/3849962/
38/3850585/
38/3851075/
38/3862407/
38/3866504/
38/3869464/
38/3870098/
38/3873169/
38/3874881/
38/3880703/
38/3884905/
38/3899368/
39/3906374/
39/3911250/
39/3914511/
39/3918990/
39/3921965/
39/3927924/
39/3933501/
39/3934216/
39/3937877/
39/3938904/
39/3940382/
39/3942422/
39/3945687/
39/3950293/
39/3960309/
39/3965298/
39/3966220/
39/3973828/
39/3976162/
39/3982471/
39/3984048/
39/3990662/
39/3992215/
39/3993688/
39/3993971/
39/3997242/
39/3997570/
39/3998132/
