36/3600995/
36/3601923/
36/3602666/
36/3602766/
36/3603778/
36/3605831/
36/3606909/
36/3607470/
36/3607634/
36/3608535/
36/3612374/
36/3623238/
36/3624651/
36/3629298/
36/3629505/
36/3638642/
36/3642023/
36/3643157/
36/3645431/
36/3645685/
36/3645820/
36/3646209/
36/3649897/
36/3655233/
36/3656395/
36/3660704/
36/3661047/
36/3662063/
36/3666135/
36/3668415/
36/3669534/
36/3670659/
36/3673659/
36/3678195/
36/3681816/
36/3683556/
36/3688532/
36/3691193/
36/3693937/
36/3695426/
36/3696309/
36/3696526/
37/3700665/
37/3704246/
37/3705913/
37/3705993/
37/3709357/
37/3718465/
37/3720080/
37/3720238/
37/3720351/
37/3721988/
37/3730789/
37/3732380/
37/3738465/
37/3738640/
37/3756720/
37/3762313/
37/3765008/
37/3765613/
37/3766623/
37/3768027/
37/3774472/
37/3774557/
37/3774669/
37/3775266/
37/3776184/
37/3779174/
37/3781713/
37/3787836/
37/3788902/
37/3789067/
37/3789753/
37/3794008/
37/3799860/
38/3801668/
38/3802399/
38/3803525/
38/3810844/
38/3817358/
38/3818171/
38/3822834/
38/3823372/
38/3825747/
38/3826249/
38/3827619/
38/3828159/
38/3828598/
38/3831180/
38/3832741/
38/3835275/
38/3837717/
38/3838593/
38/3838899/
38/3839885/
38/3841908/
38/3842379/
38/3846431/
38/3848395/
38/3853824/
38/3855660/
38/3857144/
38/3860895/
38/3863603/
38/3865294/
38/3867836/
38/3880703/
38/3882032/
38/3884905/
39/3901926/
39/3904550/
39/3906346/
39/3911458/
39/3911936/
39/3913277/
39/3914250/
39/3916703/
39/3916757/
39/3931207/
39/3935712/
39/3937297/
39/3938750/
39/3938777/
39/3940319/
39/3944716/
39/3947791/
39/3949571/
39/3951979/
39/3952493/
39/3964490/
39/3968020/
39/3971111/
39/3972198/
39/3973651/
39/3973721/
39/3974357/
39/3981032/
39/3981688/
39/3983906/
39/3997097/
39/3998084/
39/3998206/
